Exploratory Analysis of US Flight Data (2008)
…
Summary/Analysis:

Its difficult to detect any meaningful pattern in the geographical plot. It looks like there might be some contrast in delay proportion regionally for example between the Mountain West and the Northeast. Coastal airports seem to have higher delay rates, too.

Lets now include the first variable we looked at, Month, into the plot. Recalling from our focus on Month that December showed the highest delay proportion and September the lowest. Well compare geographic plots of those two months

## # A tibble: 3,024 x 6
## # Groups:   Month, Origin, lat, long [3,024]
##    Month Origin     lat     long           type     d_prop
##    <int> <fctr>   <dbl>    <dbl>         <fctr>      <dbl>
##  1     4    ABE 40.6521 -75.4408 medium_airport 0.05882353
##  2     7    ABE 40.6521 -75.4408 medium_airport 0.09523810
##  3     9    ABE 40.6521 -75.4408 medium_airport 0.10256410
##  4    10    ABE 40.6521 -75.4408 medium_airport 0.11111111
##  5     8    ABE 40.6521 -75.4408 medium_airport 0.11904762
##  6     5    ABE 40.6521 -75.4408 medium_airport 0.12903226
##  7     2    ABE 40.6521 -75.4408 medium_airport 0.15384615
##  8     3    ABE 40.6521 -75.4408 medium_airport 0.15625000
##  9     1    ABE 40.6521 -75.4408 medium_airport 0.18421053
## 10     6    ABE 40.6521 -75.4408 medium_airport 0.24324324
## # ... with 3,014 more rows
…
